Win,Red Score,Red Time,Blue Score,Blue Time
"RED","64","99.4520775","43","96.4491085"
"RED","54","99.478837995","47","96.427892198"
"RED","59","99.5695017","43","96.4114734"
"RED","55","99.6271628","50","96.4224415"
"BLUE","56","99.4492038","63","96.4772417"
"BLUE","42","99.4493826","60","96.447662"
"RED","56","99.411541","54","96.4514506"
"RED","51","99.4752628","48","96.3897662"
"RED","58","99.5045807","46","96.4704285"
"RED","49","99.4730429","43","96.7090101"
"RED","58","96.5453513","43","96.507387"
"RED","47","99.4779166","46","96.433601502"
"RED","67","99.557750498","29","96.338818701"
"BLUE","47","99.4564195","50","96.4873815"
"RED","49","99.4984294","37","96.480486"
"RED","53","99.4489705","31","96.3564492"
"RED","68","99.533595","48","96.4502328"
"RED","58","99.5393024","45","96.3695225"
"BLUE","51","99.5508167","55","96.4627265"
"RED","49","99.6432328","36","96.4594778"
"RED","69","99.6135531","24","96.4342795"
"BLUE","50","99.6061749","61","96.5423912"
"BLUE","53","99.3759443","61","96.3427483"
"RED","58","99.5175602","50","96.4734281"
"RED","48","99.5907714","42","96.4445091"
"RED","62","99.4553463","40","96.4350051"
"RED","69","99.5881807","30","96.3997204"
"RED","50","99.418277","42","96.4516725"
"BLUE","39","99.4078446","57","96.4327634"
"RED","53","99.3828706","47","96.4442143"
"RED","63","99.5362678","54","96.57172"
"BLUE","38","99.5405111","58","96.5907616"
"RED","62","99.502113998","54","96.508711003"
"BLUE","42","99.559726106","48","96.491571102"
"BLUE","38","99.5986642","54","96.550094601"
"BLUE","44","99.424810602","46","96.385226197"
"RED","66","99.5151673","45","96.4146208"
"BLUE","42","99.5077828","62","96.4335688"
"RED","48","99.4733354","43","96.4538024"
"RED","35","99.4993403","34","96.4157307"
"RED","72","99.5203431","39","96.4067985"
"BLUE","50","99.5593654","59","96.4835954"
"BLUE","43","99.4189777","44","96.39195"
"RED","60","99.5741524","56","96.5166847"
"BLUE","37","99.4272515","47","96.4471989"
"RED","54","99.493099","40","96.4722516"
"RED","49","99.3944715","43","96.4395787"
"RED","48","99.4597447","47","96.5036077"
"RED","49","99.4256921","46","96.4151197"
"RED","44","99.3625517","42","96.4719436"
"RED","48","99.6052903","47","96.5351251"
"BLUE","45","99.4096516","58","96.4888209"
"RED","48","99.4493172","43","96.4802895"
"RED","58","99.5368198","54","96.5887668"
"RED","48","99.4385842","46","96.5227316"
"RED","53","99.4276708","45","96.5303643"
"BLUE","60","99.5746843","67","96.4657513"
"BLUE","46","99.4770076","58","96.4421716"
"BLUE","40","96.4434134","48","96.4678548"
"BLUE","46","99.5945213","50","96.3733343"
"BLUE","41","99.4397408","63","96.5431661"
"RED","60","99.5232683","37","96.4240691"
"RED","53","99.5191807","45","96.5151488"
"BLUE","52","99.3997386","56","96.4555497"
"BLUE","49","99.4879517","54","96.4408967"
"BLUE","54","99.4084958","56","96.4360688"
"RED","47","99.4675887","41","96.4290012"
"RED","60","99.6425556","36","96.4512866"
"BLUE","53","99.440412","61","96.4597674"
"BLUE","45","99.5628535","65","96.618581"
"RED","60","99.4256045","48","96.3623529"
"BLUE","38","99.5138502","51","96.5585232"
"RED","55","99.3800607","44","96.3916755"
"RED","64","99.494379304","52","96.374145997"
"RED","49","99.487400001","43","96.539229603"
"RED","49","99.528736398","43","96.403698302"
"RED","46","99.545077302","38","96.630162204"
"RED","54","99.475539001","50","96.433563804"
"RED","48","99.523258","40","96.48796669"
"BLUE","49","99.419216497","54","96.442485401"
"BLUE","42","99.5285215","48","96.5316728"
