Win,Red Score,Red Time,Blue Score,Blue Time
"RED","64","99.5191223","42","96.3948038"
"RED","60","99.4875259","38","96.3400234"
"BLUE","49","99.4587915","59","96.4495143"
"RED","57","99.4928487","41","96.4288871"
"RED","52","99.5182444","35","96.3703948"
"RED","66","99.5661477","38","96.3787279"
"RED","80","99.4944561","29","96.3605692"
"RED","65","99.4615462","45","96.455428"
"RED","61","99.5840153","56","96.442117"
"RED","66","99.4756653","51","96.4575437"
"BLUE","50","99.7670522","56","96.5256044"
"BLUE","39","99.4079286","48","96.4841147"
"BLUE","41","99.4432216","67","96.5673679"
"RED","65","99.5356991","38","96.554846"
"RED","63","99.6763124","51","96.4186952"
"RED","61","99.5099117","33","96.400314"
"RED","74","99.4769706","64","96.457415"
"RED","61","99.4899147","57","96.5052075"
"BLUE","52","99.4768407","53","96.3706654"
"BLUE","40","99.4269864","51","96.4927565"
"BLUE","31","99.5423822","54","96.5516563"
"BLUE","47","99.4781996","55","96.4556256"
"RED","58","99.5456884","36","96.4002947"
"BLUE","43","99.512138","50","96.4051836"
"BLUE","39","99.5046149","69","96.4925415"
"RED","56","99.5974338","37","96.4823202"
"BLUE","51","99.6748852","54","96.6022805"
"BLUE","36","99.4305629","55","96.5415236"
"RED","68","99.5119702","29","96.4253146"
"RED","59","99.6938591","37","96.4921279"
"RED","69","99.5613154","41","96.5257426"
"RED","36","99.5106769","35","96.5546478"
"RED","53","99.4673447","25","96.4051008"
"BLUE","50","99.4434755","52","96.578501"
"RED","61","99.4386643","32","96.4969831"
"RED","72","99.5605519","40","96.4876841"
"BLUE","49","99.4875543","58","96.506424"
"BLUE","52","99.5983163","55","96.5320495"
"BLUE","37","99.429869","57","96.4768395"
"BLUE","59","99.4473573","67","96.6036836"
"BLUE","45","99.4578443","61","96.5578395"
"RED","51","99.4611689","49","96.512128"
"RED","64","99.5735925","40","96.3997116"
"RED","53","99.5586119","40","96.5840003"
"BLUE","51","99.475557","62","96.4457409"
"RED","49","99.7536591","41","96.5316913"
"RED","51","99.5198692","46","96.576721"
"RED","52","99.4780204","45","96.5475033"
"RED","52","99.5451459","38","96.4426268"
"RED","40","99.4672044","37","96.4042588"
"RED","57","99.4387211","41","96.4881881"
"RED","55","99.5385842","50","96.3875099"
"DRAW","61","99.5377273","61","96.5397844"
"RED","52","99.5447661","28","96.4000796"
"RED","58","99.5310531","34","96.4338222"
"BLUE","40","99.5827996","52","96.6858247"
"RED","56","99.4766348","41","96.4932418"
"BLUE","34","99.553345","47","96.553839"
"RED","45","99.4606504","39","96.3924447"
"BLUE","47","99.4969614","53","96.4679007"
"BLUE","44","99.5171482","46","96.4512927"
"BLUE","44","99.397405","57","96.4214292"
"BLUE","53","99.4563555","58","96.4551333"
"BLUE","26","99.4386087","57","96.5459238"
"RED","57","99.4846802","46","96.4622202"
"BLUE","43","99.5741105","49","96.5535785"
"RED","47","99.4779257","44","96.698461"
"BLUE","39","99.4072347","73","96.4146066"
"RED","48","99.7128653","46","96.5374543"
"RED","48","99.3942795","42","96.3473047"
"BLUE","51","99.5264588","55","96.5054582"
"RED","54","99.5816391","51","96.4562703"
"BLUE","52","99.4676507","53","96.4595377"
"DRAW","54","99.5918989","54","96.4776781"
"BLUE","43","99.4441396","45","96.4027096"
"BLUE","37","99.4584976","61","96.4952981"
"BLUE","51","99.4847743","52","96.6083045"
"RED","56","99.5329692","44","96.3926348"
"BLUE","51","99.6266637","56","96.4880126"
"RED","55","99.4475565","39","96.4213015"
"RED","54","99.462573","36","96.5570969"
"RED","57","99.5734625","47","96.5641954"
"RED","51","99.5501498","40","96.5206558"
"BLUE","36","96.4486084","52","96.6313886"
"RED","64","99.5091751","45","96.464697"
"RED","48","99.4929818","44","96.5174015"
"RED","57","99.4396238","48","96.4177005"
"RED","58","99.5029593","52","96.4090446"
"RED","70","99.4825703","55","96.4833173"
"BLUE","53","99.5482312","63","96.4269241"
"RED","49","99.5985262","33","96.491235"
"BLUE","39","99.6122665","54","96.5338161"
"RED","56","99.5548178","24","96.3974995"
"BLUE","52","99.4367427","65","96.4603528"
"RED","57","99.5024593","50","96.3661446"
"BLUE","43","99.4629528","51","96.5331417"
"RED","56","99.5059618","35","96.4798788"
"RED","54","99.5596564","36","96.5631692"
"BLUE","57","99.5770162","58","96.491749"
"RED","73","99.5538007","43","96.5694202"
"RED","51","99.5525119","48","96.4837373"
"RED","68","99.6620558","40","96.4780259"
"RED","69","99.5483557","49","96.4919229"
"RED","53","99.5519492","37","96.4615028"
"BLUE","40","99.466928","50","96.4379197"
"RED","59","99.4458736","52","96.4139003"
"BLUE","50","99.5341956","52","96.4352011"
"RED","50","99.6152178","47","96.4760659"
"RED","59","99.7670313","49","96.4674577"
"RED","57","99.5535098","36","96.4838314"
"RED","61","99.5300107","48","96.45454"
"RED","57","99.4996511","33","96.4234301"
"RED","61","99.399999","39","96.4462711"
"DRAW","35","99.6230178","35","96.5567474"
"BLUE","34","99.5317943","38","96.4195627"
"RED","45","99.5273442","31","96.4403489"
"DRAW","46","99.5465918","46","96.5780149"
"BLUE","39","99.5464676","49","96.5760605"
"RED","51","99.522042","40","96.4481765"
"RED","69","99.4909444","50","96.54434"
"BLUE","50","99.4723783","51","96.5050877"
"RED","49","99.490872","43","96.5310913"
"BLUE","40","99.5497067","54","96.4358554"
"RED","56","96.4591871","48","96.4396069"
"RED","60","99.5517416","51","96.4334585"
"RED","48","99.5420358","42","96.5551373"
"BLUE","40","99.4513242","48","96.4311534"
"DRAW","50","99.4899523","50","96.4259899"
"BLUE","41","99.4717719","45","96.4909292"
"BLUE","34","99.4127665","56","96.5151228"
"BLUE","49","99.5698848","63","96.4659895"
"RED","46","99.477979","39","96.4994322"
"RED","60","99.4986909","41","96.4758306"
"RED","72","99.5729375","28","96.4734329"
"BLUE","46","99.4741634","56","96.5465456"
"BLUE","47","99.6082623","58","96.5463955"
"RED","49","99.4645873","48","96.4816788"
"RED","76","99.5008839","40","96.6511256"
"RED","65","99.5820025","44","96.5173659"
"BLUE","25","99.4311423","56","96.4779383"
"RED","54","99.6071646","46","96.4934523"
"BLUE","45","99.4264109","54","96.5123396"
"RED","57","99.5409204","48","96.4784171"
"RED","59","99.5297305","37","96.526146"
"RED","44","99.4770872","42","96.4494246"
"BLUE","38","99.4095049","49","96.4317771"
"RED","48","99.5217759","43","96.4251423"
"RED","67","99.5044692","44","96.4702914"
"RED","53","99.4908012","46","96.5613919"
"RED","56","99.6017638","32","96.4903685"
"BLUE","25","99.5452091","67","96.4526378"
"RED","60","99.6461221","43","96.5492834"
"BLUE","33","99.4511461","47","96.4977844"
"BLUE","37","99.4492036","45","96.4766703"
"BLUE","40","99.390048","66","96.5116394"
"RED","66","99.466884","50","96.4350127"
"BLUE","42","99.5619217","52","96.4863139"
"BLUE","43","99.4235535","53","96.4959199"
"DRAW","62","99.51997","62","96.4590407"
"BLUE","45","96.4714292","53","96.4718054"
"RED","57","99.5695949","34","96.5655706"
"RED","49","99.511817","46","96.3941026"
"BLUE","41","99.5522944","52","96.3996581"
"RED","68","99.6355074","35","96.4885523"
"RED","55","99.4968692","41","96.4558183"
"BLUE","46","99.4342739","62","96.581129"
"BLUE","62","99.4172951","87","96.5223417"
"RED","49","99.6330715","38","96.4149759"
"RED","72","99.6302363","50","96.5266667"
"DRAW","48","99.5275058","48","96.5310905"
"RED","64","99.5625296","37","96.427702"
"RED","81","99.4773423","45","96.3575709"
"BLUE","29","99.4216796","54","96.4820614"
"RED","64","99.5242637","46","96.4690816"
"RED","50","96.4799844","47","96.4322758"
"RED","61","99.5985231","49","96.429921"
"RED","51","99.5229826","35","96.4458992"
"RED","56","99.4940308","52","96.5044924"
"BLUE","44","99.6259343","49","96.4986061"
"RED","67","99.4923598","51","96.4614924"
"RED","74","99.6248103","41","96.4511104"
"BLUE","30","99.471607","66","96.5306052"
"RED","60","99.5278958","36","96.4757312"
"BLUE","49","99.4728333","61","96.583886"
"BLUE","40","99.6174672","58","96.4940511"
"BLUE","48","99.4862197","60","96.5747825"
"RED","62","99.5580944","32","96.4765949"
"BLUE","37","99.4261472","58","96.5195128"
"RED","60","99.5608468","59","96.5002096"
"RED","61","99.5340477","29","96.5266863"
"RED","56","99.5573439","54","96.4327723"
"BLUE","43","96.4543614","49","96.4182348"
"RED","46","99.4259515","44","96.3476184"
"BLUE","43","99.4784137","52","96.470778399"
"BLUE","48","99.576207601","53","96.406626899"
"BLUE","37","99.583050304","41","96.3668663"
"RED","54","99.544463903","43","96.463780202"
"RED","70","99.470139796","44","96.443412802"
"RED","57","99.574421398","51","96.485435599"
"BLUE","46","99.4676809","47","96.533611197"
"BLUE","48","99.525052","69","96.502580497"
"BLUE","49","99.472027303","59","96.451421602"
"RED","62","99.556720897","20","96.430594005"
"RED","71","99.553978501","30","96.446052197"
"RED","65","99.497097701","22","96.396678299"
"RED","65","99.527678502","35","96.456768298"
"RED","58","99.499403","51","96.446713399"
"RED","53","99.532941402","49","96.554849803"
"BLUE","43","99.368247194","58","96.455212701"
"BLUE","34","99.488072292","58","96.522807099"
"DRAW","44","99.410421699","44","96.459197105"
"BLUE","34","99.472475395","48","96.472807504"
"BLUE","53","99.429405604","57","96.531555003"
"BLUE","45","99.494917005","52","96.521811802"
"BLUE","29","99.524782003","41","96.585001401"
"BLUE","43","99.447113697","53","96.454841202"
"RED","66","99.491979297","41","96.420840103"
"RED","55","99.497412299","53","96.597266895"
"RED","65","99.486713802","39","96.4715604"
"RED","63","99.602623193","50","96.523178595"
"BLUE","58","99.471101902","63","96.485609002"
"RED","51","99.527916203","45","96.525187894"
"BLUE","40","99.591984093","46","96.904475297"
"BLUE","35","99.507398497","47","96.461934402"
"BLUE","31","99.434557106","68","96.512729801"
"RED","72","99.644089402","40","96.496951797"
"RED","56","99.499580897","44","96.5391743"
"BLUE","51","99.493825","60","96.410719295"
"RED","63","99.598218703","41","96.427164804"
"RED","69","99.593122299","37","96.3795468"
"RED","60","99.493727402","46","96.431244501"
"RED","58","99.453070699","48","96.581489401"
"RED","74","99.465850704","71","96.426315895"
"BLUE","44","99.435753791","50","96.454046995"
"BLUE","46","99.486425003","72","96.507475904"
"RED","65","99.396530499","45","96.494991296"
"RED","50","99.474778101","43","96.541431102"
"RED","64","99.487640396","58","96.446334998"
"BLUE","25","99.463012098","30","96.468275902"
"BLUE","29","99.487154899","48","96.513713407"
"RED","41","99.450920397","39","96.420499398"
"BLUE","41","99.452007103","47","96.441734806"
"RED","69","99.5659382","38","96.5566072"
"BLUE","56","99.4806546","65","96.4890841"
"BLUE","43","99.7242682","46","96.5711515"
"RED","76","99.5312911","19","96.3444279"
"RED","65","99.6000641","34","96.4981863"
"BLUE","48","99.4140993","56","96.4987526"
"BLUE","49","99.386695","69","96.4509246"
"RED","52","99.5625592","42","96.5302082"
"RED","49","99.5426283","34","96.4583946"
"RED","65","96.4276436","36","96.3849115"
"RED","56","99.551939","46","96.5493019"
"RED","55","96.3669931","45","96.5070427"
"RED","69","99.4632506","59","96.4892798"
"RED","63","99.5381738","57","96.4124218"
"DRAW","59","99.634883","59","96.5537479"
"RED","67","96.5729581","34","96.5148088"
"BLUE","56","99.4370768","61","96.4899656"
"RED","52","99.6212585","23","96.3920318"
"RED","46","99.3948168","40","96.4108232"
"RED","48","99.5747176","43","96.6309706"
"RED","58","99.4922329","50","96.4844195"
"BLUE","61","99.5813509","63","96.5732861"
"BLUE","51","99.4759956","65","96.416484"
"RED","59","99.688914","48","96.445573"
"RED","64","99.552361","50","96.4125187"
"BLUE","43","99.4304245","63","96.5298706"
"RED","59","99.5298347","40","96.3896578"
"RED","50","99.4938472","45","96.4518262"
"RED","60","99.5160186","53","96.5150781"
"RED","50","99.4465505","39","96.4390708"
"BLUE","40","99.4716588","51","96.5456924"
"BLUE","43","99.678927","51","96.6661357"
"DRAW","40","99.371599","40","96.505865"
"RED","47","99.5339496","41","96.4376565"
"RED","67","99.457829","42","96.4843836"
"RED","71","99.5572897","69","96.4240232"
"BLUE","57","99.6392558","64","96.5835619"
"RED","61","99.4288119","50","96.5200415"
"RED","58","99.4827067","42","96.3759321"
"BLUE","50","99.5566295","52","96.4880443"
"BLUE","43","99.544482","53","96.58253"
"RED","69","99.5763811","45","96.3868372"
"BLUE","43","99.6015433","57","96.5574245"
"RED","54","99.4394073","46","96.5484648"
"RED","60","99.478019","55","96.5071583"
"RED","56","99.421078","55","96.4747733"
"RED","54","99.5391809","47","96.4997589"
"RED","53","99.4879372","52","96.4495129"
"BLUE","48","99.5312142","52","96.6093349"
"BLUE","44","99.5399007","55","96.4543332"
"RED","56","99.5893379","35","96.4429087"
"BLUE","35","99.7697442","43","96.487291"
"BLUE","48","99.4657827","53","96.4328409"
"RED","48","99.4894855","45","96.4354128"
"BLUE","42","99.5919354","51","96.5757898"
"RED","70","99.6856413","30","96.4477304"
"BLUE","50","99.5588904","57","96.4704717"
"RED","58","99.5548502","38","96.4483345"
"BLUE","48","99.4414744","60","96.490914"
"RED","59","99.5792343","56","96.4045388"
"BLUE","39","99.3823413","47","96.4503327"
"BLUE","48","99.4511553","62","96.4794135"
"BLUE","51","99.4499335","57","96.4708165"
"BLUE","44","99.4763809","75","96.48426"
"BLUE","46","99.5565676","54","96.4681845"
"BLUE","28","99.5892555","60","96.5232498"
"BLUE","45","99.5595734","48","96.5406655"
"RED","60","99.4921078","47","96.4539341"
"RED","56","99.4791746","40","96.4598311"
"BLUE","42","96.48238","63","96.5695097"
"RED","38","99.6723089","37","96.4955282"
"BLUE","38","99.5549273","54","96.5184658"
"RED","62","99.599141","54","96.5920422"
"RED","52","99.5529005","33","96.412683"
"RED","63","99.7197073","44","96.4975069"
"BLUE","46","96.6080981","69","96.5643196"
"BLUE","39","99.4735805","45","96.4826707"
"RED","50","99.5551444","48","96.4592996"
"RED","70","99.5852699","50","96.4085881"
"BLUE","58","99.5780735","59","96.4432989"
"BLUE","39","99.5894151","56","96.5841454"
"BLUE","50","99.4311637","56","96.3976995"
"BLUE","31","99.5457355","50","96.5361459"
"RED","52","99.5158513","51","96.4436369"
"BLUE","50","99.461436","58","96.5723512"
"RED","56","99.4623573","50","96.4529625"
"RED","72","99.532399","45","96.4735787"
"RED","62","99.4492081","50","96.4475961"
"BLUE","32","99.4571929","68","96.4803394"
"RED","52","99.4603314","41","96.3956624"
"RED","45","99.5129642","36","96.3996008"
"RED","58","99.5967808","44","96.4735699"
"BLUE","39","99.4894985","46","96.4624759"
"BLUE","47","99.6162143","58","96.5091558"
"RED","58","99.4882178","44","96.4348999"
"RED","56","99.5090948","40","96.512832"
"RED","82","99.5410001","44","96.4294104"
"RED","57","99.513211","53","96.4778122"
"RED","54","99.5459517","41","96.4178722"
"RED","72","99.4336526","29","96.3886776"
"BLUE","42","99.524336","47","96.6212293"
"RED","64","99.6864377","39","96.3936798"
"RED","74","99.4521997","44","96.4509912"
"BLUE","54","96.5171031","55","96.4462744"
"BLUE","43","99.5669719","54","96.5164681"
"RED","58","99.6173097","50","96.5303089"
"BLUE","51","99.5774966","64","96.5986098"
"RED","49","99.4169408","46","96.4229651"
"RED","77","99.6294874","64","96.4271702"
"BLUE","55","99.4268924","57","96.477488"
