Win,Red Score,Red Time,Blue Score,Blue Time
"RED","64","198.4395931","54","192.399385"
"BLUE","45","198.4696427","55","192.4845525"
"DRAW","61","198.5235754","61","192.5381275"
"BLUE","52","198.4131492","55","192.4504677"
"BLUE","49","198.3731008","65","192.4933633"
"BLUE","45","198.4010603","62","192.4350023"
"RED","66","198.4788879","42","192.5008118"
"RED","53","198.4484077","52","192.5574318"
"BLUE","46","198.3999112","52","192.4570518"
"RED","64","198.4345821","47","192.3549645"
"BLUE","40","198.4581505","54","192.4105948"
"RED","64","198.3521314","53","192.3929386"
"BLUE","45","198.4175864","48","192.4535381"
"RED","54","198.5794695","33","192.4762039"
"BLUE","48","198.4974846","54","192.4548261"
"BLUE","59","198.4873237","67","192.5010297"
"BLUE","49","198.4313178","51","192.4544199"
"BLUE","48","198.3766347","61","192.4819797"
"RED","66","198.4994978","44","192.433845"
"BLUE","49","198.3800148","60","192.3801474"
"BLUE","41","198.4392071","46","192.4743146"
"BLUE","43","198.4387749","62","192.5480147"
"BLUE","38","198.370504","52","192.4648583"
"RED","55","198.3927641","53","192.3819539"
"DRAW","59","198.4023705","59","192.5199099"
"BLUE","47","198.4975517","69","192.4713212"
"BLUE","46","198.3944009","53","192.5689199"
"RED","54","198.4427799","52","192.4002085"
"RED","60","198.5822601","50","192.5300409"
"BLUE","48","198.438693","58","192.5091867"
"RED","50","198.432016","42","192.3586629"
"RED","76","198.5055232","53","192.4420596"
"RED","72","198.426853","54","192.4651671"
"BLUE","47","198.4763724","54","192.5157778"
"BLUE","53","198.420239","70","192.5124432"
"BLUE","45","198.4798431","57","192.4522936"
"RED","59","192.4189349","57","192.4483899"
"BLUE","53","198.5046517","59","192.4313293"
"BLUE","41","198.3125823","69","192.4610943"
"RED","70","198.4661101","68","192.5034093"
"RED","47","198.4383967","39","192.3889795"
"BLUE","52","198.452129","74","192.4682334"
"RED","53","198.7666906","44","192.576126"
"RED","82","198.5503809","63","192.4719662"
"RED","53","198.5528289","50","192.5511354"
"BLUE","57","198.3890386","68","192.4119944"
"RED","55","198.5989281","41","192.6338799"
"RED","58","198.4780744","51","192.4263647"
"BLUE","60","198.4699966","72","192.4747622"
"BLUE","49","198.4909449","51","192.4097226"
"RED","68","198.4315011","64","192.406282"
"BLUE","45","198.4847136","54","192.4566779"
"RED","69","198.5888764","50","192.5185794"
"RED","58","198.4089348","56","192.3786634"
"BLUE","48","198.5334987","53","192.5806956"
"BLUE","57","198.4349888","58","192.4690069"
"BLUE","55","198.3804098","71","192.4373546"
"BLUE","50","198.4618618","53","192.4804164"
"BLUE","47","198.4727941","58","192.4510876"
"BLUE","41","198.4943639","69","192.5357195"
"BLUE","35","198.5007885","70","192.4964729"
"RED","49","198.463106","40","192.4237995"
"BLUE","39","198.5595996","50","192.5923831"
"RED","54","198.4551756","49","192.4878478"
"DRAW","66","198.5144845","66","192.4702655"
"BLUE","57","198.4314144","66","192.4438381"
"RED","51","198.4478138","31","192.4350551"
"BLUE","66","198.435894","73","192.5186044"
"RED","54","198.4122976","50","192.4029315"
"RED","62","198.4471405","28","192.4423555"
"BLUE","48","198.4579593","60","192.5700838"
"BLUE","36","198.5008634","53","192.6009374"
"RED","62","198.4241612","45","192.5112714"
"RED","54","198.4487587","51","192.3828812"
"RED","66","198.3898068","61","192.473847"
"RED","58","198.5208919","43","192.3575236"
"BLUE","52","198.4453445","71","192.4769013"
"RED","61","198.4994843","31","192.392549"
"BLUE","42","198.4464207","78","192.4926899"
"BLUE","40","198.4300529","66","192.5332844"
"RED","43","198.431048","39","192.4986165"
"RED","57","198.4514262","44","192.5367926"
"RED","59","198.5072157","52","192.5267519"
"BLUE","65","198.5727475","67","192.4271375"
"BLUE","61","198.4315591","68","192.4097647"
"BLUE","46","198.4014552","57","192.5775814"
"BLUE","62","198.4260487","70","192.5480192"
"RED","61","198.4107547","44","192.397659"
"BLUE","54","198.5612731","65","192.5310762"
"RED","51","198.4932661","47","192.3942216"
"RED","57","198.4044038","53","192.549336"
"BLUE","50","198.4402843","54","192.5262681"
"RED","55","198.4453082","50","192.4814529"
"BLUE","53","198.3996181","60","192.3758928"
"RED","57","198.456436","47","192.4161719"
"BLUE","50","198.5104804","52","192.5609901"
"BLUE","38","198.4588313","50","192.4982504"
"BLUE","44","198.4255259","50","192.5210075"
"RED","63","198.5794859","45","192.5027937"
"BLUE","39","198.4319943","58","192.4336945"
"BLUE","45","198.4218259","69","192.4680581"
"BLUE","52","198.4283337","55","192.3970657"
"RED","59","198.4882784","37","192.4152229"
"RED","64","198.4940813","59","192.3715259"
"BLUE","52","198.4465315","63","192.4763671"
"BLUE","51","198.4336107","69","192.5186775"
"BLUE","58","198.6187205","61","192.4043484"
"BLUE","53","198.4246408","63","192.4424605"
"RED","59","198.4853048","55","192.5229137"
"BLUE","42","198.4353231","54","192.5272214"
"RED","52","198.4095484","47","192.4430477"
"BLUE","55","198.3909187","61","192.4645838"
"RED","64","198.3640857","56","192.4733892"
"RED","60","198.5912783","46","192.4018347"
"BLUE","62","198.5009259","65","192.4481761"
