Win,Red Score,Red Time,Blue Score,Blue Time
"RED","63","198.5145719","44","192.5109055"
"BLUE","38","198.4330617","56","192.5394802"
"DRAW","49","198.4697476","49","192.5314998"
"BLUE","23","198.4063887","60","192.4668941"
"BLUE","53","198.4728475","57","192.5279957"
"RED","53","198.5088231","33","192.4887495"
"RED","62","198.4304015","56","192.4785153"
"BLUE","45","198.4981045","56","192.5247743"
"BLUE","58","198.4267157","68","192.5359651"
"BLUE","31","198.4632141","58","192.652417"
"RED","59","198.5033644","52","192.4228619"
"RED","50","198.4455093","47","192.5637909"
"BLUE","64","198.5563892","67","192.5082816"
"BLUE","56","198.5116033","58","192.5200257"
"BLUE","53","198.6244907","60","192.6068649"
"BLUE","41","198.4511359","57","192.5032687"
"BLUE","47","198.4691996","68","192.4344349"
"RED","59","198.495387","44","192.5825437"
"BLUE","38","198.4393407","59","192.4080088"
"RED","54","198.4583371","42","192.519138"
"BLUE","44","198.4783497","56","192.5448898"
"BLUE","42","198.4915167","57","192.4708265"
"BLUE","48","198.4941156","49","192.515247"
"RED","67","198.4790114","45","192.5350613"
"RED","56","198.4972253","55","192.5664912"
"RED","58","198.4354799","57","192.4898731"
"RED","63","198.4962935","50","192.4172557"
"BLUE","40","198.4602659","66","192.5142138"
"BLUE","46","198.5119287","51","192.6163828"
"RED","62","198.4342602","47","192.5436634"
"BLUE","49","198.490061","67","192.657403"
"RED","68","198.4730637","50","192.4444204"
"RED","57","198.4635775","47","192.47568"
"RED","61","198.4156838","56","192.4181059"
"BLUE","44","198.4903939","45","192.5554915"
"RED","59","198.6002511","45","192.4969971"
"BLUE","45","198.4565547","52","192.4314846"
"BLUE","47","198.4103494","68","192.5355535"
"RED","52","198.6165786","39","192.5352915"
"BLUE","35","198.4247143","62","192.6267611"
"RED","50","198.5284718","40","192.4826404"
"RED","51","198.5278268","36","192.4303864"
"BLUE","45","198.4349237","51","192.4625841"
"RED","52","198.4893617","50","192.5310897"
"BLUE","40","198.5079691","43","192.4924766"
"RED","58","198.4961159","53","192.499838"
"RED","60","198.5422252","45","192.4520112"
"BLUE","43","198.5644963","54","192.4768584"
"BLUE","32","198.4605618","55","192.4967937"
"BLUE","50","198.4762166","58","192.5001842"
"RED","48","198.5136771","35","192.4789248"
"BLUE","43","198.4577765","52","192.4922308"
"RED","69","198.6027162","63","192.5908736"
"RED","57","198.5172492","31","192.5254296"
"BLUE","47","198.6042118","56","192.5416162"
"BLUE","46","198.4581004","58","192.5788316"
"RED","56","198.4687733","47","192.5071054"
"BLUE","49","198.430358","57","192.5958638"
"RED","61","198.4943284","51","192.4420945"
"RED","50","198.5159984","45","192.4870536"
"RED","79","198.5447997","31","192.4196595"
"BLUE","46","198.5085512","60","192.5508519"
"RED","75","198.402461","41","192.4139004"
"RED","55","198.5378779","35","192.4275278"
"RED","66","198.562565","63","192.5631093"
"BLUE","48","198.4140068","68","192.4466353"
"RED","65","198.5239286","46","192.4841623"
"RED","50","198.4164917","42","192.4402535"
"RED","51","198.5549211","29","192.4626322"
"BLUE","44","198.4108598","50","192.4416521"
"RED","61","198.522344","36","192.4722749"
"BLUE","47","198.4648288","58","192.5585514"
"RED","70","198.5052398","48","192.5512412"
"BLUE","53","198.5776239","61","192.8699035"
"BLUE","32","198.3764977","47","192.3873952"
"BLUE","52","198.4337318","60","192.5361851"
"RED","72","198.5741498","58","192.4144756"
"DRAW","67","198.5317156","67","192.4752416"
"RED","57","198.393153","43","192.425199"
"RED","54","198.5154481","41","192.4460193"
