Win,Red Score,Red Time,Blue Score,Blue Time
"DRAW","63","96.5303724","63","96.4694242"
"BLUE","40","99.4549152","63","96.4981876"
"RED","62","99.4896689","57","96.4322282"
"BLUE","43","99.481174","49","96.4408008"
"BLUE","41","99.5370409","55","96.5124404"
"BLUE","35","99.5061404","54","96.5084106"
"BLUE","40","99.5194586","42","96.4513721"
"RED","59","99.6775932","39","96.4808738"
"RED","58","99.4724137","48","96.4469952"
"RED","62","99.5665062","36","96.4702343"
"RED","56","99.4317807","49","96.3693144"
"BLUE","45","99.4914156","52","96.4606937"
"BLUE","53","99.4666728","59","96.4453859"
"BLUE","40","99.4586651","47","96.490254"
"BLUE","37","99.4139494","47","96.4344681"
"RED","61","99.5159215","49","96.4570285"
"RED","58","99.5825074","36","96.4755419"
"BLUE","49","99.6289144","57","96.5986201"
"RED","62","99.4932278","57","96.5072122"
"BLUE","54","99.4122933","60","96.4654065"
"RED","57","99.5808836","48","96.6539944"
"BLUE","50","99.564918","63","96.5799444"
"BLUE","40","99.6098854","51","96.5504433"
"BLUE","51","99.3989645","55","96.3706849"
"BLUE","52","99.4599437","63","96.4965209"
"BLUE","42","99.3860619","53","96.5582387"
"BLUE","33","99.4396057","54","96.4136684"
"BLUE","56","99.440663","64","96.4069842"
"RED","47","99.4153727","41","96.4655661"
"RED","47","99.5355293","42","96.4741847"
"BLUE","52","99.4100662","60","96.5537065"
"RED","50","99.4312565","46","96.4171022"
"RED","56","99.5336678","53","96.4930172"
"BLUE","36","99.3841561","48","96.4610534"
"RED","61","99.4802681","60","96.4204123"
"RED","58","99.4912631","34","96.4750728"
"RED","48","99.4943649","41","96.4881804"
"RED","62","99.5712163","49","96.5311849"
"BLUE","30","99.4073137","50","96.4589444"
"RED","62","99.4981572","55","96.5235381"
"RED","62","99.4000087","42","96.4802088"
"BLUE","41","99.4571681","65","96.5424013"
"BLUE","47","99.4698107","55","96.427049"
"RED","52","99.43366","48","96.4234098"
"RED","48","99.5011637","44","96.5088026"
"RED","53","99.5183575","52","96.4822918"
"BLUE","43","99.4225902","76","96.5666697"
"RED","56","99.5197865","40","96.5567828"
"RED","52","99.5654329","42","96.4166344"
"RED","56","99.4933003","44","96.5174608"
"RED","55","99.4497949","30","96.4469666"
"RED","79","99.4982605","60","96.4962052"
"BLUE","31","99.4779469","50","96.6387265"
"BLUE","42","99.5195644","46","96.5864687"
"BLUE","52","99.4477366","66","96.4255298"
"RED","45","99.5422113","37","96.5209956"
"RED","63","99.5518842","48","96.4495295"
"RED","60","99.471298","45","96.5290828"
"BLUE","36","99.4472291","45","96.4291519"
"BLUE","42","99.4357919","51","96.4570532"
"RED","55","99.5553025","35","96.3834471"
"BLUE","44","99.4399431","72","96.6075899"
"RED","77","99.498529","48","96.4453207"
"BLUE","59","99.4223859","61","96.4866486"
"RED","56","99.3999134","41","96.3838993"
"BLUE","37","99.5443811","55","96.5314226"
"BLUE","39","99.5419686","46","96.5492049"
"RED","43","99.3888974","41","96.4348637"
"RED","60","99.4186823","48","96.4453394"
"RED","56","99.5366109","41","96.5336505"
"RED","50","99.490503","43","96.5028651"
"RED","62","99.4245085","43","96.4899311"
"RED","48","99.4598746","38","96.4015806"
"BLUE","65","99.4317558","80","96.4581282"
"BLUE","48","99.4118919","53","96.4721918"
"RED","70","99.5167181","51","96.6340162"
"RED","55","99.5592738","33","96.547429"
"RED","43","99.5601747","42","96.663678"
"RED","62","99.3891046","43","96.5163278"
"BLUE","48","99.466652","56","96.4176528"
"BLUE","39","99.4040586","53","96.436672"
"BLUE","37","99.5020551","41","96.5720368"
"BLUE","53","99.4604668","71","96.4648546"
"BLUE","41","99.4346942","55","96.4752132"
"BLUE","48","99.4870376","53","96.4386459"
"BLUE","40","99.4975825","41","96.547281"
"BLUE","50","99.446249","57","96.540395"
"RED","62","99.4033237","33","96.4626203"
"BLUE","42","99.5562673","49","96.4256523"
"RED","58","99.4283025","57","96.4466138"
"RED","55","99.573257","49","96.5322443"
"BLUE","51","99.4804144","65","96.4620013"
"RED","61","99.6933578","46","96.5679155"
"BLUE","37","99.438312","54","96.4402938"
