2,FIELDS,FIELDS,FIELDS,FIELDS,CLOISTER,1,CLOISTER,1,CENTER,,,,,,,,,
1,FIELDS,FIELDS,ROAD,FIELDS,CLOISTER,2,CLOISTER,1,CENTER,ROAD,1,SOUTH,,,,,,
1,CITY,CITY,CITY,CITY,CITY,1,CITY,4,NORTH,EAST,SOUTH,WEST,,,,,,
1,CITY,CITY,FIELDS,CITY,CITY,1,CITY,3,NORTH,EAST,WEST,,,,,,,
1,CITY,CITY,FIELDS,CITY,CITY,1,CITY,3,NORTH,EAST,WEST,,,,,,,
1,CITY,CITY,ROAD,CITY,CITY,2,CITY,3,NORTH,EAST,WEST,ROAD,1,SOUTH,,,,
1,CITY,CITY,ROAD,CITY,CITY,2,CITY,3,NORTH,EAST,WEST,ROAD,1,SOUTH,,,,
1,CITY,FIELDS,FIELDS,CITY,NONE,1,CITY,2,NORTH,WEST,,,,,,,,
1,CITY,FIELDS,FIELDS,CITY,NONE,1,CITY,2,NORTH,WEST,,,,,,,,
1,CITY,ROAD,ROAD,CITY,NONE,2,CITY,2,NORTH,WEST,ROAD,2,EAST,SOUTH,,,,
1,CITY,ROAD,ROAD,CITY,NONE,2,CITY,2,NORTH,WEST,ROAD,2,EAST,SOUTH,,,,
1,FIELDS,CITY,FIELDS,CITY,CITY,1,CITY,2,EAST,WEST,,,,,,,,
1,FIELDS,CITY,FIELDS,CITY,CITY,1,CITY,2,EAST,WEST,,,,,,,,
1,CITY,FIELDS,FIELDS,CITY,NONE,2,CITY,1,NORTH,CITY,1,WEST,,,,,,
1,CITY,FIELDS,CITY,FIELDS,NONE,2,CITY,1,NORTH,CITY,1,SOUTH,,,,,,
2,CITY,FIELDS,FIELDS,FIELDS,NONE,1,CITY,1,NORTH,,,,,,,,,
1,CITY,FIELDS,ROAD,ROAD,NONE,2,CITY,1,NORTH,ROAD,2,SOUTH,WEST,,,,,
1,CITY,ROAD,ROAD,FIELDS,NONE,2,CITY,1,NORTH,ROAD,2,SOUTH,EAST,,,,,
1,CITY,ROAD,ROAD,ROAD,CROSSING,4,CITY,1,NORTH,ROAD,1,EAST,ROAD,1,SOUTH,ROAD,1,WEST
1,CITY,ROAD,FIELDS,ROAD,NONE,2,CITY,1,NORTH,ROAD,2,EAST,WEST,,,,,
4,ROAD,FIELDS,ROAD,FIELDS,NONE,1,ROAD,2,NORTH,SOUTH,,,,,,,,
4,FIELDS,FIELDS,ROAD,ROAD,NONE,1,ROAD,2,SOUTH,WEST,,,,,,,,
2,FIELDS,ROAD,ROAD,ROAD,CROSSING,3,ROAD,1,EAST,ROAD,1,SOUTH,ROAD,1,WEST,,,
1,ROAD,ROAD,ROAD,ROAD,CROSSING,4,ROAD,1,NORTH,ROAD,1,EAST,ROAD,1,SOUTH,ROAD,1,WEST
