Win,Red Score,Red Time,Blue Score,Blue Time
BLUE,42,43.505059755,44,42.382173024
BLUE,56,40.212501671,66,39.928379877
RED,65,41.914140427,11,42.746079744
RED,62,44.718871716,32,43.609862909
BLUE,34,43.691773199,49,42.747193441
RED,56,46.557518738,25,45.489048595
RED,81,45.511399513,19,44.71427096
RED,65,44.593302851,15,43.916234696
RED,68,43.103422304,35,40.61715861
BLUE,49,43.80043852,59,43.005492737
BLUE,47,44.649300894,62,44.376297476
RED,61,44.123508671,36,43.344715398
RED,64,44.250554438,25,43.74180376
BLUE,42,42.524207707,62,41.577917187
BLUE,39,45.090152216,54,44.355893342
RED,47,44.75676576,27,43.934916895
BLUE,10,41.433396797,65,42.464929944
BLUE,34,45.043222547,53,44.438443684
RED,60,43.255706535,35,42.768526451
BLUE,11,41.080507885,53,41.878412827
RED,52,45.43680259,42,44.457455064
RED,68,45.355330496,15,44.814042355
BLUE,38,45.741444922,76,44.751045242
RED,69,45.186881158,25,44.638286344
BLUE,38,45.404736891,59,44.407969509
RED,55,46.661395548,27,43.985861566
RED,69,45.381239272,18,44.652495457
BLUE,21,43.909245892,59,42.755450033
RED,61,46.585436005,22,44.952994538
BLUE,47,44.998486601,77,43.841871008
RED,66,44.335573133,25,43.505661563
BLUE,32,46.818532923,51,45.203714884
RED,61,47.189919096,32,46.408335433
RED,69,43.890316284,46,42.959742625
BLUE,16,47.367735937,58,46.462184235
RED,51,45.728483779,34,45.53263454
RED,62,42.561834659,36,41.97730632
BLUE,68,44.34183107,71,43.862908341
RED,57,43.667649642,56,42.683230975
BLUE,14,43.676194473,79,43.928139793
BLUE,25,45.30794881,57,44.124896182
RED,66,46.628893762,35,45.768101484
RED,56,47.640462448,52,46.522404133
BLUE,46,47.60215062,62,46.428356378
RED,75,45.362969845,36,43.96792593
RED,65,45.311237771,39,44.46543875
RED,84,45.279821307,51,44.364138398
RED,56,45.441926152,44,44.505643575
RED,53,47.155876286,35,46.263680375
RED,60,46.317424787,27,45.748830898
BLUE,55,43.228378399,85,43.28640605
RED,51,46.645383749,25,47.348502469
BLUE,25,47.019330859,60,44.998063742
RED,72,45.497538157,20,44.663308348
RED,71,43.813966366,61,43.558806251
RED,63,43.330303344,20,43.076888052
RED,63,45.711224189,7,45.155173787
