Win,Red Score,Red Time,Blue Score,Blue Time,,Red Wins,Blue Wins
BLUE,56,460.869174336,75,449.857250512,,0,1
BLUE,80,424.254311638,83,433.603024572,,0,1
RED,84,428.954981957,65,405.038450747,,1,0
RED,71,430.510906579,70,419.969644819,,1,0
RED,82,425.182132862,64,403.320050439,,1,0
RED,82,448.564932258,59,421.511075033,,1,0
BLUE,61,411.703530045,65,422.776700012,,0,1
BLUE,71,395.401871659,80,430.138793339,,0,1
BLUE,80,448.784793544,83,426.413581694,,0,1
BLUE,64,427.985562042,67,422.216907273,,0,1
RED,83,457.123265157,61,448.685414129,,1,0
BLUE,72,438.987134984,89,430.596263165,,0,1
BLUE,61,465.492375153,81,460.328890558,,0,1
BLUE,65,449.089377634,83,452.181848754,,0,1
BLUE,82,467.879949506,85,460.556705759,,0,1
BLUE,65,440.134864626,67,448.531160464,,0,1
BLUE,58,444.895821485,92,449.970670992,,0,1
RED,91,412.252482226,89,371.687802842,,1,0
RED,76,441.223899168,62,441.408001004,,1,0
BLUE,68,439.146352993,81,429.602865493,,0,1
RED,92,428.126680869,58,411.247581587,,1,0
BLUE,77,453.420720116,86,448.179616693,,0,1
BLUE,69,445.349546573,80,438.739740266,,0,1
BLUE,57,476.460259799,74,448.591167723,,0,1
RED,78,438.253543779,72,444.411229545,,1,0
DRAW,76,439.137268979,76,410.635499991,,0.5,0.5
RED,74,433.900671276,60,430.040145448,,1,0
RED,61,444.510033496,56,433.95687875,,1,0
BLUE,67,407.077921333,72,381.773528638,,0,1
BLUE,74,391.550200144,83,393.236317622,,0,1
RED,83,429.739389525,63,420.628426013,,1,0
RED,78,415.728928341,67,403.917636488,,1,0
DRAW,81,432.907337577,81,426.112900645,,0.5,0.5
RED,61,425.649693906,59,417.316726035,,1,0
RED,88,418.403524049,57,408.401864704,,1,0
BLUE,50,423.712795159,78,414.961115102,,0,1
RED,78,417.773840328,64,389.386052302,,1,0
RED,86,405.192763263,57,366.683243395,,1,0
BLUE,67,384.368410565,74,394.648265053,,0,1
BLUE,64,382.411384155,73,389.996246356,,0,1
BLUE,58,374.823713043,79,400.609458293,,0,1
BLUE,68,378.765199575,74,400.955546698,,0,1
BLUE,61,409.05534722,67,417.380265437,,0,1
BLUE,61,386.487233537,95,392.620830228,,0,1
RED,85,405.92135853,63,412.344721657,,1,0
RED,90,397.866099218,69,395.908235286,,1,0
BLUE,58,378.772219099,97,389.597600197,,0,1
RED,76,430.776985027,61,435.652498335,,1,0
BLUE,71,481.315802848,82,491.687003046,,0,1
RED,72,430.65039736,57,402.298826677,,1,0
BLUE,78,434.421535517,82,421.660896835,,0,1
RED,73,429.639138187,50,451.237336166,,1,0
RED,79,447.870267084,71,457.149555905,,1,0
BLUE,75,437.794994108,76,451.355440636,,0,1
BLUE,62,426.868720015,75,446.18861022,,0,1
BLUE,73,426.736656252,81,433.763681215,,0,1
BLUE,59,426.986698321,80,430.757062591,,0,1
RED,91,436.875733435,78,442.412722066,,1,0
RED,85,408.478309945,64,435.856490962,,1,0
RED,74,433.093911627,65,408.777459344,,1,0
BLUE,64,412.205532124,65,446.333616249,,0,1
RED,84,399.430987006,72,419.67980672,,1,0
BLUE,61,412.996766444,87,437.871081267,,0,1
BLUE,57,420.25391469,95,433.892069756,,0,1
RED,79,408.872667139,75,417.899160855,,1,0
BLUE,64,408.940495809,92,424.515663583,,0,1
RED,80,424.639562098,64,413.876015138,,1,0
RED,78,444.776571038,50,453.224237951,,1,0
BLUE,66,415.414705827,79,426.992937793,,0,1
BLUE,55,383.732878019,69,416.790666694,,0,1
RED,89,404.21340949,73,412.854132979,,1,0
RED,77,424.022394899,67,417.230864239,,1,0
BLUE,65,427.515579018,79,431.815815948,,0,1
BLUE,50,386.642449398,82,411.934855919,,0,1
BLUE,65,409.754432405,78,428.039565118,,0,1
RED,91,424.704473168,68,428.860855656,,1,0
AVERAGE RED,72.1973684210526,AVERAGE BLUE,73.0526315789474,,,0.447368421052632,0.552631578947368
STD SAMPLE RED,10.7294233915803,STD SAMPLE BLUE,10.8883971723324,,,0.493821474951026,0.493821474951026
