Win,Red Score,Red Time,Blue Score,Blue Time
"RED","48","31.1497602","47","30.791427"
"BLUE","43","29.9922291","49","29.6042637"
"RED","49","30.430528","44","29.9542"
"RED","47","31.5479882","40","31.4275514"
"BLUE","27","32.0543861","39","31.5535811"
"RED","50","30.0413059","38","29.5782765"
"BLUE","53","29.1935586","62","28.362898"
"BLUE","28","30.8933571","48","30.5056117"
"BLUE","36","30.3767273","45","30.0282795"
"BLUE","31","29.2166976","50","28.6796595"
"RED","42","29.6243965","35","28.9549847"
"RED","37","31.1470517","35","30.9453235"
"BLUE","38","29.3397295","55","28.8548593"
"RED","58","28.908765","47","28.1687019"
"BLUE","57","29.7288634","59","29.2316734"
"RED","47","31.5398739","30","31.3146712"
"BLUE","39","27.1876767","66","28.158056"
"RED","46","30.6916554","33","30.33424"
"BLUE","29","30.6942573","45","30.4622906"
"BLUE","35","29.6525611","40","28.9459532"
"RED","47","29.3399631","44","28.762801"
"BLUE","31","30.1053744","62","29.8096295"
"BLUE","41","26.371837","46","27.3125883"
"BLUE","40","29.6120008","59","28.9812105"
"DRAW","58","29.5438225","58","28.7575517"
"BLUE","24","31.3261924","57","30.8130045"
"BLUE","38","31.0726683","61","30.2202447"
"BLUE","33","31.9099451","50","31.3997024"
"BLUE","57","31.6835459","62","31.0644306"
"RED","40","33.2653377","31","33.268901"
"RED","40","31.7649583","32","31.0532207"
"BLUE","31","32.0458935","37","31.7035844"
"BLUE","34","32.2517551","53","32.1315926"
"BLUE","34","33.789294","39","34.15887"
"BLUE","30","33.0167063","56","32.7509208"
"RED","40","32.1459601","39","31.9272158"
"BLUE","39","31.6880874","50","31.3605033"
"BLUE","28","32.5499669","45","32.3849641"
"BLUE","33","33.978383","41","33.0347312"
"BLUE","33","33.8822748","51","33.3790724"
"RED","54","31.3368256","36","30.6484335"
"BLUE","25","33.3246708","50","33.4083202"
"BLUE","31","33.4112112","59","32.8797911"
"BLUE","34","32.4810127","42","31.8700233"
"RED","51","32.423531","32","31.6633279"
"RED","35","34.0672471","34","33.498283"
"RED","56","31.4560608","39","30.5796671"
"RED","48","33.8856934","46","33.85584"
"BLUE","42","32.3928708","63","31.7817219"
"BLUE","29","32.6455789","49","32.4585684"
"BLUE","23","33.1841473","34","33.1080749"
"RED","44","34.1177622","36","34.3083117"
"RED","66","32.4928763","29","31.8341252"
"BLUE","36","32.1579949","59","31.6164432"
"BLUE","46","31.0625685","51","30.0860507"
"RED","40","33.2896539","39","32.9214934"
"BLUE","42","32.419574","45","32.4968325"
"BLUE","41","32.4506045","54","32.092163"
"BLUE","32","33.2765733","68","33.0389554"
"RED","49","31.3036479","46","30.302495"
"BLUE","30","31.5591189","51","31.1496038"
"BLUE","41","32.4521316","45","31.5227103"
"BLUE","35","33.1622456","51","32.6257177"
"RED","48","33.1877304","27","32.7734523"
"BLUE","44","31.8118938","53","31.0204777"
"BLUE","45","31.5945585","62","30.5572599"
"BLUE","40","34.3227462","43","34.1457472"
"BLUE","32","32.8000121","52","32.5411881"
"RED","45","31.0934624","40","32.0840012"
"BLUE","70","31.6040054","77","30.4715511"
"BLUE","48","31.5434423","50","30.9414707"
"BLUE","59","32.0387702","61","31.6780829"
"BLUE","32","31.8682425","45","30.9051783"
"BLUE","28","31.6937456","52","30.9886608"
"BLUE","36","31.6936317","58","30.9259858"
"BLUE","37","31.312348","56","32.392578"
"RED","45","33.8199361","37","33.9095658"
"BLUE","32","33.0696363","47","32.9791368"
"BLUE","45","31.5668417","49","31.1395288"
"BLUE","22","32.1026516","42","32.8594899"
