Win,Red Score,Red Time,Blue Score,Blue Time
"RED","82","239.835301676","74","207.306995876"
"BLUE","49","234.252549563","69","220.899598646"
"RED","58","246.018382246","54","228.749315389"
"RED","85","245.132125452","59","217.836823695"
"DRAW","66","245.99078085","66","219.643884453"
"RED","65","230.513236922","53","225.818181178"
"BLUE","59","230.575559938","68","212.97982425"
"BLUE","65","228.964339259","89","210.702684733"
"RED","85","230.601570523","81","207.06588204"
"BLUE","61","221.00693228","87","209.353813158"
"DRAW","58","241.664983828","58","233.208494457"
"BLUE","56","225.052418287","75","221.179399623"
"RED","60","247.296290764","58","229.978998301"
"RED","77","236.620089603","74","217.146281306"
"RED","79","242.782063723","68","227.494470927"
"BLUE","52","223.168012183","85","198.411688806"
"RED","80","245.072734723","57","241.336444005"
"BLUE","48","223.897124457","77","219.60686758"
"RED","57","244.905010084","55","230.230604748"
"BLUE","66","229.410312819","69","216.97340633"
"RED","68","223.769627301","64","222.203792137"
"BLUE","55","245.348933676","65","230.035440173"
"BLUE","45","244.742730257","81","239.860197801"
"BLUE","48","234.135875939","107","221.153945041"
"BLUE","63","242.624840017","66","226.075855724"
"RED","74","242.041220858","69","230.591691564"
"BLUE","63","240.392728763","80","228.534483765"
"RED","76","239.821298637","48","205.847640399"
"RED","83","222.962730875","62","188.272789818"
"RED","73","222.609387278","55","208.685068297"
"DRAW","65","230.282221751","65","219.374308235"
"RED","81","233.945669564","52","219.220542033"
"BLUE","72","237.431317557","79","204.502194671"
"BLUE","59","241.420332184","64","216.370889684"
"BLUE","55","239.56092176","77","229.979393272"
"RED","67","249.414381755","39","239.317068606"
"BLUE","67","233.242901804","89","212.063389936"
"BLUE","67","248.346128661","83","225.190651337"
"BLUE","65","233.418247684","69","191.610176461"
"RED","60","238.103083856","47","221.174545318"
"BLUE","69","234.143967304","110","203.366549689"
"RED","64","230.912367038","60","215.842313962"
"BLUE","59","229.531606753","66","213.866963603"
"BLUE","37","221.592878918","96","206.810457716"
"BLUE","67","232.429016667","77","218.322102173"
"RED","69","221.614353162","52","209.549191247"
"RED","85","247.589040509","62","207.975093208"
"RED","80","239.202836105","41","224.766354605"
"BLUE","58","242.028474262","65","219.966234823"
"BLUE","66","229.556598301","81","206.728799523"
"BLUE","68","229.800814739","77","209.384069507"
"BLUE","55","235.907028143","66","216.790511451"
"RED","70","235.440747426","50","216.885353806"
"RED","50","244.158652442","46","234.334070813"
"BLUE","60","248.72202892","61","219.910381729"
"BLUE","48","252.156301438","74","225.381814002"
"RED","82","233.517935513","61","218.160873479"
"BLUE","61","230.404107792","85","214.216980923"
"BLUE","51","240.674020932","85","208.246284881"
"BLUE","66","240.668289582","72","226.621473123"
"RED","77","233.340508983","53","220.639433956"
"BLUE","49","250.257013748","73","238.825957156"
"RED","77","244.649347929","54","228.616106763"
"RED","71","228.309943092","67","203.541747787"
"RED","68","232.468862267","49","214.014391934"
"BLUE","60","224.833236042","86","200.756551202"
"BLUE","66","233.620604863","77","195.094859673"
"BLUE","58","231.215927155","83","201.901336334"
"BLUE","75","223.380150603","77","206.332417933"
"BLUE","42","240.989832089","76","218.385744994"
"BLUE","52","240.829658234","75","220.275559057"
"RED","85","231.763427904","45","220.068232902"
"BLUE","59","240.595297583","65","212.648103725"
"RED","69","242.059103927","67","202.987297189"
"BLUE","60","233.599179365","77","207.988522664"
"RED","70","238.393676826","57","211.711291506"
"RED","69","238.125642853","62","212.78688271"
"BLUE","63","239.152969774","77","203.169464649"
"BLUE","56","245.733015406","67","223.561279123"
"RED","86","224.095724017","56","204.44038868"
"BLUE","61","226.700317195","84","208.927777498"
"BLUE","79","233.117922759","92","211.967591479"
"RED","64","233.198610765","59","212.769496066"
"RED","77","234.789154266","70","216.778732269"
"BLUE","54","253.241206143","73","233.790440017"
"RED","78","233.147969497","53","208.112396472"
"RED","73","246.455766198","72","224.851279948"
"BLUE","56","230.291572731","79","205.589273399"
"RED","96","250.624323718","44","229.76673818"
"RED","66","230.481104407","56","208.897189612"
"BLUE","65","243.467665463","68","230.424380883"
"BLUE","71","242.339223412","77","225.283222611"
"BLUE","69","222.289690176","76","216.875899047"
"RED","82","230.450319734","64","205.007834221"
"BLUE","68","234.070960005","76","204.705051118"
"BLUE","65","237.220435935","66","210.164615883"
"RED","83","243.364489958","67","222.20544322"
"RED","67","245.993734959","60","240.228935678"
"BLUE","39","246.943144403","58","233.207420832"
"BLUE","76","231.560695796","79","208.730498262"
"RED","69","250.272177014","53","232.947424361"
"RED","72","233.77969003","49","219.124437918"
"DRAW","64","223.959682108","64","206.354137829"
"RED","77","241.263688192","60","217.067287735"
"RED","80","211.758971669","58","206.148498522"
"DRAW","65","232.537685503","65","216.796412144"
"BLUE","65","229.43027961","82","203.630451465"
"BLUE","65","233.300736799","82","218.247397645"
"RED","70","235.526945416","51","222.761916171"
"RED","73","250.233246816","55","230.544672116"
"DRAW","56","227.231510246","56","218.119890383"
"BLUE","59","241.217052949","77","221.894290799"
"BLUE","60","228.925985282","79","203.229460082"
"BLUE","59","232.765230373","74","218.548257233"
"RED","77","233.154748594","57","215.324712943"
"BLUE","66","231.312574431","71","221.64671136"
"RED","75","237.233290671","71","218.310413576"
"BLUE","58","234.973799411","73","207.689462801"
"DRAW","71","233.865780094","71","222.157036151"
"RED","85","231.727702918","61","212.203651665"
"RED","76","234.827036088","72","217.557734047"
"RED","73","229.30692144","70","208.014437816"
"BLUE","74","236.520276277","75","209.636303169"
"BLUE","58","230.742842162","91","203.444228111"
"RED","81","222.111315566","63","217.329232266"
"BLUE","60","235.823293575","81","217.96323744"
"BLUE","60","230.965318335","71","210.740827345"
"BLUE","57","227.743031935","85","204.639141111"
"RED","67","240.395766075","54","225.446664131"
"BLUE","47","233.58775477","95","214.640223553"
"RED","74","248.319835484","63","233.536381268"
"RED","57","246.155448042","51","231.874745147"
"BLUE","43","249.133464039","55","233.291012537"
"BLUE","69","232.95849702","88","209.373182497"
"RED","73","230.792678693","63","215.683441993"
"RED","78","232.631747279","69","209.828360916"
"BLUE","50","234.218534204","74","200.057427708"
"RED","67","241.000890726","62","223.251727374"
"RED","76","228.917571454","68","222.501012629"
"BLUE","43","248.163165367","58","232.864530512"
"RED","65","234.180030021","58","200.833105361"
"RED","71","232.920645655","53","221.513373217"
"RED","91","227.975795215","76","211.319475619"
"BLUE","59","236.412630855","78","220.317986241"
"RED","61","236.78316755","49","217.067966827"
"BLUE","65","244.135879544","73","201.580454576"
"RED","71","235.67811471","65","221.541654818"
"BLUE","59","236.637915355","62","217.814547776"
"RED","86","221.541940111","54","208.711222432"
"RED","66","236.499008301","64","205.831471323"
"BLUE","61","233.722459009","64","215.763943728"
"RED","70","228.345382085","67","205.39850368"
"BLUE","38","241.953152641","77","231.616429478"
"BLUE","64","235.27260699","78","207.957065807"
"RED","78","233.411874799","75","219.255684825"
"RED","78","226.850397813","43","217.776895148"
"DRAW","63","241.71008583","63","229.026778936"
"BLUE","47","241.580627812","68","225.002864533"
"RED","69","232.474540842","62","216.231244419"
"BLUE","66","235.633495772","96","206.704284639"
"BLUE","64","235.977983936","90","219.471234382"
"BLUE","56","232.946262028","77","208.994319252"
"BLUE","55","242.065818729","70","218.37316541"
"BLUE","52","246.642451052","73","227.585949823"
"BLUE","58","239.633227342","74","216.586391577"
"RED","83","236.024389154","49","219.522073912"
"BLUE","49","233.170474463","62","230.176597626"
"RED","66","233.371969171","62","203.320787422"
"BLUE","58","235.37930163","73","219.225864155"
"BLUE","63","241.571767219","68","220.52761515"
"RED","63","242.829201369","52","224.520011144"
"RED","72","223.716845291","66","209.075826856"
"BLUE","69","230.739826689","79","209.437558218"
"BLUE","55","250.809645638","58","219.636643493"
"RED","69","221.744587349","65","202.240051951"
"RED","68","243.528017011","67","224.377083227"
"RED","79","239.156797337","60","223.078057186"
"RED","68","212.582334057","59","203.175503676"
"BLUE","53","233.136634892","102","211.860596879"
"RED","69","235.688609702","63","207.615320742"
"RED","82","239.054064314","68","220.75883406"
"BLUE","61","244.511746341","66","227.176263051"
