Win,Red Score,Red Time,Blue Score,Blue Time
BLUE,62,133.46554744,91,122.139281598
BLUE,44,117.042095084,86,112.774076634
BLUE,37,131.495509545,58,128.840182034
BLUE,56,127.406883108,88,119.431295142
BLUE,66,122.045095233,92,114.906513569
BLUE,52,136.610592543,54,133.064082645
BLUE,29,129.661647653,75,120.156869522
BLUE,59,130.515597216,73,124.735341856
BLUE,75,130.00838499,86,123.822573721
BLUE,40,131.574891391,76,125.365624018
BLUE,59,131.767129012,70,124.548908903
BLUE,45,132.609544772,71,127.556535977
BLUE,51,124.451949335,57,120.663164356
BLUE,46,143.803791888,63,134.317317246
BLUE,64,129.137168186,84,118.243885448
RED,84,133.446255621,66,130.472451104
BLUE,57,128.017110263,93,124.357127173
BLUE,45,134.832064314,71,133.944968915
BLUE,66,129.49106473,88,119.308481232
BLUE,56,133.842040051,64,120.81619517
BLUE,59,130.371674118,82,125.214409577
BLUE,43,128.252503707,68,126.233070635
RED,73,131.331236881,58,122.820393066
BLUE,47,133.192336176,72,130.297123714
RED,82,132.682252114,71,125.907488279
RED,81,138.043267828,60,128.630343409
BLUE,34,141.428232883,66,136.467955151
RED,75,132.429963503,49,125.140538598
RED,56,143.935073244,52,139.134800709
BLUE,56,137.324156901,62,127.121202657
BLUE,24,133.758027312,72,129.644603282
BLUE,54,131.760211764,58,124.078305393
BLUE,36,129.098898071,79,120.398451092
BLUE,64,137.819544955,72,134.39339579
RED,83,133.091538512,47,125.790073229
BLUE,47,129.136346052,69,114.62657967
RED,78,134.300006639,46,127.640092427
RED,71,131.488928445,65,124.556353722
BLUE,51,134.803992468,74,125.5475482
BLUE,60,132.349750279,67,127.098426456
BLUE,40,132.857880982,54,128.691492024
BLUE,42,138.525095706,78,137.139100554
BLUE,45,128.527882032,72,121.757081788
RED,63,138.288825192,59,132.495746088
BLUE,63,131.833641937,72,118.726101996
BLUE,72,126.76571739,76,116.669918785
BLUE,48,127.195454794,68,119.549575641
BLUE,47,139.855934492,65,134.106342355
BLUE,50,133.088026464,73,124.176122667
RED,50,136.711084732,36,129.278477386
BLUE,57,134.830843105,77,128.889235548
RED,69,128.010164456,67,126.588063806
BLUE,50,125.582660578,61,126.316751856
RED,76,136.333902947,57,130.735845159
BLUE,60,136.990769444,82,126.379889095
BLUE,42,136.271091869,70,123.077791601
RED,71,131.788422541,66,126.527961413
BLUE,25,131.900246549,90,122.658732167
RED,78,127.658026964,73,116.929417643
BLUE,63,136.191888923,66,124.551105857
RED,76,129.523835458,66,122.272971248
BLUE,58,121.259458472,94,115.849448916
RED,69,133.296847812,48,126.709991591
RED,74,129.816705048,70,121.739063973
BLUE,58,130.829738673,70,125.695721606
BLUE,57,131.237199839,69,125.925947029
BLUE,63,135.419875982,73,127.660777859
RED,59,135.170504968,56,129.630092507
RED,59,132.042667865,56,121.608115685
RED,84,121.91919667,68,120.735797165
BLUE,59,123.206346282,90,116.286733826
RED,57,136.596127788,56,130.98351391
BLUE,36,134.466054659,69,124.207055905
BLUE,57,136.206850104,64,131.238180917
BLUE,34,130.993951684,81,125.4915998
BLUE,70,132.457238299,81,123.483985182
BLUE,55,128.083878206,67,123.90392733
RED,86,133.089409101,81,123.436471759
BLUE,30,133.088840444,90,126.294825417
BLUE,73,129.952655359,92,122.368350057
RED,71,130.652763659,52,125.338415468
BLUE,58,143.410541012,71,134.13864417
BLUE,50,131.185898779,73,127.067068218
RED,80,130.5004582,54,125.391401951
BLUE,58,131.865223907,63,128.037027455
BLUE,58,132.665701,61,128.842682569
BLUE,75,124.40640739,81,121.104557831
RED,71,136.003435606,54,130.123009229
BLUE,54,136.159238811,57,126.349738382
RED,61,133.387658102,53,128.398766202
BLUE,48,133.374012343,71,127.229643717
BLUE,51,136.375745962,76,131.459153848
RED,65,136.892188336,54,130.945598599
BLUE,44,133.825151153,89,129.480996472
RED,67,123.439912027,58,124.438042638
BLUE,50,126.197573891,73,125.357748256
RED,82,128.44749829,67,122.769476063
BLUE,75,136.024593394,81,129.656599477
RED,70,135.55415268,48,130.051903816
BLUE,47,131.768360479,65,125.305570864
BLUE,71,122.237872288,84,117.638247684
BLUE,55,132.187188483,61,126.352052368
RED,76,133.729570791,61,124.283885221
RED,80,130.93987671,61,120.250495047
BLUE,51,129.518887242,62,128.673365855
RED,74,129.54932644,70,121.362082071
BLUE,46,129.709807924,74,124.479778789
BLUE,45,132.462754922,53,125.37643193
BLUE,51,127.506552652,79,124.021127429
BLUE,65,123.437223846,71,121.756983258
BLUE,58,127.448496333,65,121.857187354
BLUE,61,124.804464607,66,118.701555423
BLUE,24,124.820152719,90,122.874092323
BLUE,47,130.482930325,64,126.140944061
BLUE,71,128.506362986,78,123.280796767
RED,71,126.852585533,62,116.592015416
BLUE,40,119.087995663,79,117.857890447
RED,59,133.174728634,58,128.201420278
DRAW,64,128.974883892,64,116.790436972
BLUE,52,129.474617028,77,125.082257638
DRAW,73,122.620252779,73,111.060855979
BLUE,45,133.000947044,61,129.214680988
BLUE,46,131.274874594,80,124.911507944
BLUE,29,135.92570358,70,130.400972685
BLUE,62,132.986922228,74,126.165006649
DRAW,72,122.30094725,72,114.017809138
BLUE,41,129.873743863,97,123.321339045
BLUE,59,118.013698573,76,111.419871019
BLUE,61,132.743167239,78,125.566687334
BLUE,50,131.768535517,65,119.199363292
RED,61,135.422549199,55,129.984762522
BLUE,51,126.816776921,77,116.215689539
BLUE,64,129.102408403,71,123.424873857
BLUE,72,121.684324106,80,118.195133273
RED,70,133.380040479,62,127.481405768
BLUE,60,127.049575596,73,119.390397547
BLUE,71,127.594294318,72,117.81827611
BLUE,45,138.599194305,76,127.081502312
RED,71,130.624876359,65,125.968159208
BLUE,33,124.303746539,65,115.780391996
RED,69,131.250669484,53,123.000761364
BLUE,57,129.360066507,73,124.645668943
RED,83,124.018631021,66,117.938121322
BLUE,63,122.470243992,72,121.110099277
RED,72,131.874410028,67,120.934985826
BLUE,45,130.568693484,66,122.416452033
BLUE,57,129.635494395,75,123.426507201
BLUE,45,125.370316047,73,121.084623004
BLUE,52,125.703907928,65,119.599631215
BLUE,38,126.314424353,77,130.83541348
BLUE,53,134.952684632,65,128.769370343
BLUE,61,130.791894251,65,124.856957801
RED,63,124.411691548,58,119.845655188
BLUE,45,133.383245189,60,132.366270476
BLUE,66,134.710297308,83,131.032585776
BLUE,42,131.695294509,57,126.938981947
DRAW,59,129.859200579,59,131.069454132
BLUE,55,127.338729577,65,122.517210255
BLUE,45,124.924633918,96,120.855231007
BLUE,54,130.102707764,71,124.630548165
BLUE,59,130.829994751,73,130.281611031
RED,71,127.506972334,50,114.005426335
BLUE,56,127.62523807,74,121.161752955
BLUE,63,126.752346791,72,120.86915726
BLUE,45,119.509378303,71,120.174444925
BLUE,79,124.770640035,83,115.916476859
BLUE,61,128.981734378,63,124.913710447
BLUE,47,131.218007395,91,121.582834292
BLUE,46,135.582588768,54,126.297420608
BLUE,67,129.084335814,83,122.391075443
BLUE,69,127.681840658,102,120.500355569
BLUE,35,133.818314868,67,130.250862569
BLUE,51,132.972636129,65,122.335405687
BLUE,59,129.316670006,70,122.027266832
BLUE,65,130.514229664,67,125.565025391
BLUE,40,130.209031852,55,125.796881007
BLUE,75,123.041371971,93,113.974894529
BLUE,37,132.961856385,81,127.040630785
BLUE,43,131.71349774,81,124.747789658
BLUE,54,136.157776297,72,130.88354499
BLUE,50,131.936085479,72,126.73120966
RED,68,134.488531741,62,129.41814456
BLUE,64,132.183367829,75,119.632745206
BLUE,38,126.861828429,84,128.155853399
BLUE,53,128.908655028,77,123.477233534
RED,68,127.018021776,59,120.723334478
BLUE,54,131.925883239,57,127.103361106
BLUE,48,140.115509744,72,135.813264404
BLUE,49,127.687698754,70,122.752175959
BLUE,32,130.365109256,82,125.006927372
RED,62,128.259646046,58,123.290862233
BLUE,52,134.830165406,61,126.906276347
BLUE,62,129.040463536,78,120.115598074
RED,75,132.572048638,65,128.028549071
BLUE,49,135.40654861,63,128.060156757
RED,60,125.931993853,53,119.25678045
BLUE,55,131.225680376,60,125.84877175
BLUE,67,130.414223438,82,123.269942389
BLUE,62,126.708290855,79,120.254797554
RED,90,128.078009874,75,115.588562734
RED,62,132.488406836,50,125.226687249
DRAW,55,130.191054826,55,119.171155635
RED,62,123.735940326,40,119.152034993
BLUE,56,121.642570585,91,108.988380144
BLUE,64,125.893322712,80,115.79162005
RED,78,126.820618354,72,122.432648224
BLUE,54,137.845967392,77,129.218789767
BLUE,36,137.674607226,75,125.364151343
BLUE,42,131.002733171,86,124.119240748
BLUE,54,131.712408815,72,126.17245587
RED,65,138.119264637,58,132.890095256
DRAW,63,130.242287519,63,123.325639103
BLUE,66,125.037846439,74,112.433268215
BLUE,52,128.889370343,66,123.132573512
BLUE,54,127.357760747,88,117.265020958
BLUE,67,129.098979935,88,126.324947585
BLUE,59,127.74013152,76,122.909912253
RED,51,128.079034356,46,128.530984301
BLUE,49,124.920495535,64,130.842718268
BLUE,59,126.301343861,70,126.553288551
BLUE,39,127.984340443,80,122.620791142
RED,79,116.993328882,57,109.229260529
RED,62,138.443895315,56,133.952150601
BLUE,61,135.469746932,82,129.66797548
BLUE,48,130.917996494,65,125.035210086
RED,58,139.540335928,44,135.9309655
BLUE,63,133.00396114,66,124.692076937
BLUE,55,130.265462465,75,120.582022231
BLUE,61,130.991729231,82,123.725523975
RED,52,130.507179124,41,126.241511684
BLUE,40,121.542058076,83,119.130326406
RED,48,126.176931866,41,120.323330873
RED,85,132.117669398,76,126.325813818
BLUE,47,122.467532782,78,114.791593165
BLUE,57,128.756651634,70,121.69678115
RED,70,125.682273414,58,119.919856616
RED,65,125.205606588,57,118.807432481
DRAW,57,118.770956328,57,109.728663517
BLUE,61,123.128743698,67,113.794440429
BLUE,55,110.446768861,63,112.439426972
RED,74,122.661975481,52,117.189128148
RED,89,123.562072502,72,108.926134273
RED,85,120.810319204,39,117.485297048
BLUE,54,125.317851638,57,122.262919324
BLUE,53,114.372177132,69,116.639086621
BLUE,53,121.67442611,67,113.760527289
BLUE,42,120.078211257,76,112.885103278
BLUE,42,119.741340001,61,120.742061283
BLUE,59,124.714901526,66,121.680260879
RED,75,118.324993738,62,117.410672069
BLUE,64,115.713243402,68,104.446832264
BLUE,57,124.480493677,58,119.056531042
RED,66,123.251055087,49,119.940958258
BLUE,45,121.551664025,79,117.021571196
BLUE,70,119.796856437,95,113.968223957
BLUE,42,126.537039385,62,127.033854992
RED,84,121.897155481,61,118.886023879
BLUE,83,108.128864222,84,108.419119493
RED,84,124.321170441,51,116.633183174
RED,65,125.891369003,44,121.562555432
BLUE,46,118.454330504,68,117.331029673
RED,63,128.331046557,52,118.88182645
RED,52,120.067939584,31,120.998944626
BLUE,56,118.608143688,71,113.258602533
BLUE,47,125.340300376,65,119.297930952
BLUE,42,121.406573507,66,110.553511538
BLUE,48,121.766331161,68,122.070038842
RED,77,119.633586384,39,117.090535116
BLUE,60,121.273251351,69,115.038214798
RED,75,123.805951686,69,118.92039186
RED,74,117.67452325,58,106.535683834
RED,68,119.806438336,56,116.649231992
BLUE,56,120.476517192,75,113.088334633
BLUE,54,125.218246005,71,119.233521917
BLUE,56,129.519095608,59,120.319178272
BLUE,55,117.528828754,74,115.660689713
BLUE,38,121.580799677,75,115.737041144
BLUE,44,125.098830439,79,124.370062687
RED,62,127.516278985,44,120.04758538
BLUE,65,116.052685585,75,107.789499529
RED,77,122.011850735,69,115.428715421
BLUE,63,122.050198348,94,115.494294259
RED,63,122.578830459,55,115.762429192
BLUE,51,124.687701925,52,120.122817486
BLUE,61,122.838136429,68,117.653285096
BLUE,64,118.565013166,80,111.634379236
BLUE,35,119.233872346,43,119.635525287
BLUE,52,126.322523793,77,122.254973815
BLUE,53,117.212901721,76,115.981337414
RED,68,122.491736987,62,117.490539263
BLUE,58,123.192552376,69,117.498815828
BLUE,59,125.769581344,70,117.544005189
BLUE,51,123.269190475,69,122.220996206
BLUE,46,125.955696881,56,121.454594438
BLUE,54,129.208107267,61,125.89522313
RED,65,117.962132466,61,112.101579519
RED,81,122.015974104,68,114.299468327
BLUE,56,122.771170842,70,115.21941515
BLUE,62,125.815997294,63,114.418596333
BLUE,46,121.325002378,72,110.713658319
BLUE,41,127.200598841,92,121.158598516
BLUE,58,119.175224897,62,117.091511748
BLUE,70,121.981861034,75,117.07468068
BLUE,56,119.594352194,71,114.159474451
RED,79,122.120621795,66,116.615204084
RED,67,121.355925453,50,120.650029323
BLUE,47,126.070858145,54,111.447694761
BLUE,52,126.695281781,69,121.825946611
BLUE,66,125.4010365,70,113.827947078
BLUE,47,113.673740945,68,109.503464593
RED,72,123.638662177,55,116.631620502
BLUE,48,122.84769832,92,116.89137748
RED,74,120.606851607,67,118.290645267
BLUE,62,124.354754486,74,119.555172451
BLUE,55,124.35162805,56,114.395444175
BLUE,51,116.537979911,81,109.841728878
BLUE,57,123.30326526,71,108.040517159
DRAW,72,124.225714707,72,112.128605458
BLUE,62,122.969292109,76,116.078936343
RED,66,125.545121287,54,119.982147671
BLUE,55,123.908977119,83,116.333361751
RED,80,121.266597262,65,115.747894366
RED,77,118.462531314,67,113.365458632
RED,79,122.223291583,73,115.186500797
BLUE,63,124.719321813,75,119.758273487
RED,69,123.827324327,52,113.70457884
RED,76,129.254727755,55,123.823521425
RED,90,114.937082481,52,117.634480844
RED,71,124.17376373,50,120.001225863
BLUE,42,126.240745509,51,121.161877714
BLUE,52,123.8800204,86,115.912479927
BLUE,52,123.433788353,72,117.493838137
DRAW,65,125.539995496,65,116.693182313
BLUE,56,121.995788833,62,118.912582488
