Win,Red Score,Red Time,Blue Score,Blue Time
"BLUE","38","330.2783516","59","320.4613889"
"BLUE","39","330.3721264","69","320.5338866"
"RED","56","330.3676389","40","320.3834774"
"RED","60","330.3498731","37","320.3684556"
"BLUE","48","330.4144371","65","320.5092309"
"BLUE","54","330.3942572","66","320.435973"
"RED","66","330.3913449","59","320.3860438"
"BLUE","58","330.433713","59","320.3998475"
"RED","61","330.4152216","38","320.3171839"
"RED","71","330.3627851","66","320.3985056"
"BLUE","60","330.430587","61","320.4582341"
"BLUE","49","330.3845531","74","320.5402887"
"BLUE","61","330.3444157","63","320.4323654"
"BLUE","44","320.4713297","59","320.415401"
"BLUE","42","330.2793429","63","320.4047719"
"BLUE","64","330.3178683","67","320.3831433"
"BLUE","42","330.3642451","46","320.4688719"
"BLUE","68","330.3658679","69","320.4822581"
"RED","65","330.4603899","39","320.5248104"
"RED","60","330.3985399","57","320.5489747"
"RED","58","330.37073","48","320.6260617"
"BLUE","32","330.2667191","66","320.498331"
"BLUE","51","330.3367401","57","320.3669694"
"BLUE","50","330.344254","55","320.5602535"
"BLUE","49","330.3690898","71","320.4404904"
"BLUE","52","330.3532511","55","320.3350522"
"BLUE","48","330.3212935","69","320.4867804"
"RED","57","330.5789283","42","320.5122878"
"BLUE","64","330.3971164","70","320.4547215"
"BLUE","49","330.3674701","61","320.4672428"
"BLUE","39","330.2631368","69","320.4160091"
"BLUE","47","330.2570037","68","320.403875"
"BLUE","37","330.2838946","50","320.5683334"
"BLUE","48","330.3572662","56","320.480864"
"BLUE","50","330.2422938","64","320.3335882"
"BLUE","52","330.358658","60","320.4679995"
"RED","59","330.2645077","53","320.3644401"
"BLUE","36","330.249899","70","320.4464751"
"BLUE","54","330.2790215","69","320.3784011"
"RED","63","330.398539","60","320.4651816"
"BLUE","53","330.3356838","66","320.3703358"
"RED","59","330.350092","56","320.3768962"
"RED","43","330.3129186","38","320.4873681"
"BLUE","47","330.3469162","63","320.5259631"
"BLUE","56","330.3242959","60","320.3547386"
"BLUE","50","330.3910227","60","320.4676543"
"RED","62","330.3606105","58","320.4103741"
"RED","59","330.4669067","43","320.5045456"
"BLUE","54","330.3104183","62","320.397611"
"BLUE","46","330.3364723","57","320.3984361"
"RED","60","330.4138165","57","320.4585026"
"BLUE","53","330.3795924","66","320.5247491"
"RED","65","330.4277028","55","320.4998101"
"RED","58","330.3932084","44","320.5095988"
"BLUE","49","330.2766336","57","320.3781719"
"RED","64","330.3167896","36","320.3500992"
"BLUE","56","330.351348","76","320.4319477"
"RED","71","330.4472612","52","320.4181735"
"RED","50","320.3309231","49","320.5419644"
"BLUE","43","330.2890093","63","320.5089865"
"BLUE","40","330.4665031","60","320.5768717"
"RED","61","330.4723107","46","320.5428352"
"RED","70","330.4362618","60","320.4655564"
"BLUE","46","330.4347063","58","320.4459639"
"RED","62","330.4353005","34","320.4710024"
"RED","63","330.2421679","57","320.3173263"
"DRAW","51","330.4390696","51","320.4432112"
"RED","65","330.3593716","49","320.3709877"
"RED","59","330.4825253","49","320.6648985"
"RED","63","330.2664093","49","320.3574031"
"BLUE","31","330.2444597","67","320.4495471"
"BLUE","47","330.2538153","64","320.2968291"
"RED","57","330.4482762","50","320.3204406"
"BLUE","44","330.4392042","55","320.4591867"
"RED","67","330.5272721","43","320.4850549"
"BLUE","51","330.4266245","63","320.3970643"
"DRAW","59","330.3319245","59","320.4957507"
"RED","52","330.4348729","45","320.4342123"
"BLUE","47","330.3414035","60","320.4795494"
"RED","57","330.3058853","44","320.3441747"
"BLUE","51","330.4750012","62","320.4463215"
"RED","54","320.3550072","48","320.5356839"
"BLUE","48","330.2931166","72","320.3513974"
"BLUE","51","330.4097847","57","320.4807814"
"RED","60","330.3963563","55","320.4849933"
"BLUE","48","330.3285521","62","320.4415221"
"RED","60","330.3089836","55","320.4316938"
"BLUE","57","330.4053485","65","320.5721119"
"BLUE","46","330.3382992","53","320.4185967"
"BLUE","48","330.3172522","59","320.3587113"
"BLUE","39","330.3142724","59","320.44933"
"RED","64","330.3450224","48","320.474904403"
"BLUE","52","330.3327933","54","320.433102897"
"BLUE","54","330.400009609","63","320.526109502"
"BLUE","34","330.296055998","68","320.436727893"
"RED","65","330.309721499","61","320.379713001"
"RED","62","330.311413999","56","320.360069597"
"DRAW","52","330.373109993","52","320.410968695"
"RED","67","330.423980001","49","320.361883898"
"RED","69","330.3325048","57","320.376559199"
"BLUE","41","330.333732498","52","320.4135117"
"BLUE","38","330.373876403","75","320.450147999"
"RED","55","330.456062397","45","320.511459109"
"RED","55","330.3824048","51","320.483198798"
"BLUE","66","330.337897704","72","320.466785"
"RED","41","330.337789","40","320.317698795"
"BLUE","49","330.311534299","54","320.527595602"
"BLUE","57","330.380199201","65","320.463605697"
"BLUE","50","330.305720398","57","320.418374894"
"RED","57","330.431245601","48","320.426492196"
"RED","64","330.305677196","59","320.3371588"
"BLUE","36","330.331289903","66","320.586429997"
"BLUE","41","330.313803204","65","320.454824203"
"BLUE","55","330.397209796","58","320.542259001"
"RED","54","330.377445199","52","320.548983802"
"BLUE","37","330.334018001","57","320.507262899"
"BLUE","41","320.359744697","49","320.404524404"
"BLUE","45","330.373875804","62","320.430388005"
"BLUE","38","330.306794395","66","320.395877804"
"RED","54","330.542646792","44","320.53081"
"BLUE","30","330.265709398","65","320.518059398"
"BLUE","23","330.2534019","67","320.428402"
"BLUE","28","330.2280223","82","320.4720203"
"BLUE","58","330.4925379","62","320.417629"
"RED","55","330.394786","54","320.4706811"
"RED","55","330.3741085","53","320.4528701"
"BLUE","48","330.4070574","66","320.3884351"
"DRAW","43","330.3796719","43","320.4506322"
"RED","64","330.5281592","53","320.4685652"
"BLUE","44","330.3573814","70","320.5190328"
"RED","55","330.4512144","52","320.4265244"
"RED","59","330.3336755","57","320.4598943"
"BLUE","44","330.3346965","51","320.4618684"
"RED","49","330.4166402","45","320.4348581"
"BLUE","37","330.4058159","40","320.3689276"
"RED","51","330.3204362","41","320.4931441"
"RED","50","330.3976032","42","320.4937459"
"RED","55","330.4583974","51","320.4411051"
"RED","60","330.2951832","55","320.4209003"
"BLUE","45","330.3260909","60","320.4079467"
"BLUE","62","330.2878187","85","320.3799231"
"BLUE","43","330.2569562","55","320.3946252"
"RED","61","330.3128963","60","320.5158972"
"RED","64","330.3015798","53","320.4077711"
"BLUE","51","330.328123","67","320.4428883"
"BLUE","43","330.372786","44","320.3934795"
"BLUE","26","330.34236","50","320.4469801"
"RED","53","330.3680516","43","320.435054"
"RED","70","330.3808324","40","320.3901024"
"BLUE","49","330.3687289","61","320.5063203"
"RED","61","330.3182944","55","320.3898531"
"BLUE","58","330.3616194","65","320.533215"
"BLUE","45","330.2923855","48","320.4537853"
"RED","56","330.3378348","54","320.5374142"
"BLUE","35","330.3483971","65","320.427373"
"RED","54","330.399543","43","320.406452"
"BLUE","62","330.4070035","67","320.4167767"
"BLUE","51","330.3499473","63","320.4960993"
"BLUE","42","330.2705604","80","320.4745567"
"RED","58","330.435324","40","320.4241216"
"RED","64","330.359898","54","320.3624192"
"RED","61","330.3030252","53","320.3627211"
"BLUE","64","330.4658363","67","320.4590169"
"BLUE","49","330.3822664","58","320.433088"
"RED","63","330.3300592","52","320.3791065"
"BLUE","54","330.4239819","55","320.4157738"
"BLUE","64","330.3333979","67","320.4611269"
"RED","56","330.3167791","51","320.4142333"
"BLUE","49","330.1668378","66","320.2915873"
"BLUE","58","330.3805783","61","320.4388382"
