Win,Red Score,Red Time,Blue Score,Blue Time
"DRAW","24","33.4595219","24","32.3747756"
"BLUE","42","33.4825617","52","32.5012309"
"BLUE","22","33.3681182","51","32.4598708"
"BLUE","21","33.4042947","44","32.4422094"
"RED","33","33.4110398","26","32.3208305"
"BLUE","27","33.376805499","36","32.482058099"
"BLUE","19","33.3863475","42","32.464975004"
"RED","33","33.397930205","32","32.493491696"
"BLUE","20","33.386033","44","32.508431598"
"RED","31","33.3750581","29","32.332622095"
"BLUE","23","33.377611198","36","32.409430502"
"BLUE","26","33.386591199","49","32.400821899"
"BLUE","21","33.364337705","41","32.488728797"
"BLUE","39","33.392077603","47","32.422267303"
"BLUE","30","33.460599403","36","32.490988501"
"BLUE","15","33.370121802","43","32.429161896"
"BLUE","22","33.322034494","49","32.478966204"
"RED","28","33.386863097","25","32.440866003"
"BLUE","35","33.436395592","39","32.436286196"
"BLUE","13","33.429104394","45","32.518145899"
"BLUE","19","33.475759103","36","32.498982502"
"BLUE","12","33.3435935","58","32.4596078"
"BLUE","39","33.510367102","46","32.3903566"
"BLUE","19","33.393366199","29","32.443352399"
"BLUE","17","33.434779305","44","32.452322101"
"BLUE","7","33.381177498","47","32.443318699"
"BLUE","18","33.409373392","45","32.402510101"
"BLUE","28","33.397776698","55","32.497839601"
"BLUE","16","33.355574101","53","32.487078901"
"RED","27","33.342275105","24","32.421988402"
"BLUE","28","33.342569702","40","32.438720301"
"BLUE","23","33.410635303","38","32.479788099"
"BLUE","21","33.393901902","47","32.494907302"
"BLUE","19","33.381489506","44","32.472691003"
"RED","40","33.464963092","35","32.443792005"
"RED","38","33.346445501","37","32.341732406"
"BLUE","28","33.389295199","38","32.472533594"
"BLUE","36","33.415928","61","32.4470632"
"BLUE","19","33.525625098","41","32.471114705"
"BLUE","21","33.366549403","49","32.408431798"
"BLUE","15","33.417367893","29","32.449911301"
"BLUE","15","33.379958695","35","32.500584802"
"RED","32","33.423777499","26","32.413856302"
"BLUE","28","33.484940903","57","32.535597696"
"BLUE","27","33.443357597","29","32.420848904"
"BLUE","36","33.414765798","37","32.4421482"
