Win,Red Score,Red Time,Blue Score,Blue Time
"BLUE","33","198.3693531","49","192.5488174"
"BLUE","23","198.4099741","44","192.5461208"
"BLUE","20","198.3066738","60","192.5605846"
"BLUE","19","198.3093939","60","192.4337877"
"BLUE","19","198.3055042","53","192.3943282"
"BLUE","15","198.3947369","54","192.4480558"
"BLUE","22","198.4039585","61","192.492163"
"BLUE","19","198.351922","53","192.5027528"
"BLUE","29","198.3250953","66","192.5475922"
"BLUE","33","198.3424679","69","192.4111693"
"RED","33","198.3904514","32","192.4431156"
"BLUE","13","198.4949407","58","192.4810794"
"BLUE","13","198.3228783","44","192.368176"
"BLUE","47","198.4764584","51","192.483954"
"RED","38","198.3793064","37","192.3926925"
"RED","59","198.3642843","53","192.4249037"
"BLUE","36","198.380594","53","192.5568773"
"BLUE","28","198.4434508","39","192.5539866"
"BLUE","22","198.3996488","58","192.4985793"
"BLUE","17","198.3353236","60","192.4424431"
"BLUE","37","198.2904266","65","192.3885738"
"BLUE","11","198.3687674","69","192.602917"
"BLUE","11","198.3295422","66","192.5510987"
"RED","36","198.2379876","35","192.3579745"
"BLUE","36","198.4094464","46","192.5976309"
"BLUE","21","198.3278533","52","192.4554064"
"BLUE","15","198.3935409","67","192.5247211"
"RED","41","198.3751248","37","192.3807053"
"BLUE","30","198.3305372","53","192.5551552"
"BLUE","21","198.3825872","42","192.4035021"
"BLUE","28","198.4329878","61","192.4909237"
"BLUE","15","198.3017212","68","192.3947612"
"BLUE","42","198.3369124","51","192.4322073"
"BLUE","27","198.3847307","61","192.5113819"
"BLUE","43","198.4324971","46","192.5140731"
"BLUE","49","198.3853335","60","192.4465983"
"BLUE","20","198.2844897","63","192.536638"
"BLUE","15","198.3166308","73","192.468392"
"BLUE","19","198.3656188","51","192.5345473"
"RED","17","198.2984323","16","192.3857707"
"BLUE","21","198.3500059","64","192.4067333"
"BLUE","21","198.3725106","65","192.4789615"
"BLUE","15","198.3640191","50","192.5111088"
"BLUE","27","198.4519445","64","192.4786432"
"RED","36","198.3622246","33","192.4865579"
"RED","53","198.3567187","52","192.428207"
"BLUE","20","198.2836423","57","192.3645801"
"BLUE","25","198.3040317","61","192.5840951"
"BLUE","31","198.3517063","68","192.3915397"
"BLUE","15","198.3349942","42","192.5127949"
"BLUE","14","198.3247304","65","192.4415209"
"RED","30","198.3490438","29","192.3886155"
"BLUE","21","198.4102008","61","192.5373271"
"BLUE","36","198.4318604","41","192.4860002"
"BLUE","15","198.2614462","70","192.5492558"
"BLUE","27","198.3020501","51","192.5126401"
"BLUE","29","198.3081624","70","192.4780913"
"BLUE","11","198.3879853","75","192.6178475"
"BLUE","7","198.3988055","70","192.4501781"
"BLUE","24","198.3376945","46","192.4333404"
"BLUE","22","192.3058245","46","192.3921515"
"RED","45","198.3937079","42","192.3964301"
"BLUE","50","198.3225875","51","192.3914659"
"BLUE","42","198.2750376","49","192.5345304"
"BLUE","34","198.4454036","54","192.5174786"
"BLUE","19","198.3839709","56","192.5266058"
"BLUE","10","198.3662671","63","192.59103"
"BLUE","7","192.3111264","67","192.5754828"
"BLUE","27","198.343056","61","192.459555"
"BLUE","9","198.3289652","60","192.5219928"
"BLUE","16","198.3804689","62","192.5478281"
"RED","54","198.408173","48","192.4441795"
"RED","53","198.4428708","52","192.4496246"
"BLUE","14","198.2850909","72","192.5074502"
"BLUE","33","198.3089206","55","192.4428328"
"BLUE","33","198.323821","56","192.3565786"
"BLUE","7","198.3572603","91","192.6743453"
"BLUE","31","198.357896","40","192.5969753"
"BLUE","31","198.4441531","47","192.5459992"
"BLUE","33","198.2569933","48","192.4339531"
"BLUE","28","198.314309","33","192.4496141"
"BLUE","7","198.2514284","53","192.4036232"
"BLUE","36","198.3119756","58","192.3598229"
"BLUE","23","198.316182","61","192.5272044"
"BLUE","29","198.3408864","48","192.5834366"
"BLUE","11","198.3168962","48","192.3765602"
"BLUE","7","198.3003745","59","192.6405189"
"BLUE","33","198.3073151","50","192.3832586"
"BLUE","12","198.4123984","57","192.467851"
"BLUE","28","198.2671296","43","192.3562288"
"BLUE","34","198.3562194","59","192.4003738"
"BLUE","25","198.3257295","47","192.441894"
"BLUE","14","198.4168551","57","192.4763454"
"BLUE","41","198.5609339","42","192.4438256"
"BLUE","21","198.2594224","53","192.4888242"
"BLUE","11","198.4449341","71","192.5350105"
"BLUE","21","192.2594149","67","192.4236914"
"BLUE","23","198.4047454","67","192.449714"
"BLUE","10","198.3120759","60","192.5563769"
