Win,Red Score,Red Time,Blue Score,Blue Time
"RED","67","693.5745898","17","672.3815076"
"RED","70","693.4670257","25","672.4413369"
"RED","75","693.5050539","20","672.3415931"
"RED","56","693.4762051","23","672.2951557"
"RED","43","693.3403441","21","672.2631998"
"RED","62","693.5623755","10","672.4611208"
"RED","51","693.426251","26","672.289124"
"RED","64","693.5440386","44","672.409545"
"RED","40","693.4032214","17","672.3787468"
"RED","70","693.5242324","30","672.388335"
"RED","50","693.4259449","13","672.2829452"
"RED","93","693.3963185","10","672.4186841"
"RED","55","672.4100462","21","672.3198952"
"RED","40","693.3589752","34","672.2460024"
"RED","60","693.316415","55","672.3583408"
"RED","59","693.4103807","45","672.3426164"
"RED","62","693.6323272","15","672.3366652"
"RED","59","693.3463606","49","672.1955878"
"RED","69","693.4194237","7","672.2681946"
"RED","64","672.4388101","27","672.2361289"
"RED","33","693.3569752","25","672.3109363"
"RED","58","693.4851673","53","672.3137637"
"RED","57","693.3768529","35","672.1861231"
"RED","51","693.359450898","7","672.2887222"
"RED","78","693.4512882","11","672.311441399"
"RED","69","693.380022","51","672.3921506"
"RED","77","693.534817801","18","672.3003153"
"RED","63","693.407231","41","672.4179664"
"RED","51","693.4703773","20","672.2642042"
"RED","53","693.490844898","21","672.2820509"
"RED","69","693.4448875","19","672.3071531"
"BLUE","37","693.3172995","40","672.2396861"
"RED","69","693.4169466","32","672.2893822"
"RED","74","693.5343419","7","672.294945"
"RED","59","693.463903701","15","672.2630916"
"RED","49","693.464265398","32","672.287828501"
"RED","61","693.4138761","30","672.3348922"
"BLUE","32","693.4215046","34","672.4868548"
"RED","69","693.5004077","7","672.4855238"
"RED","68","693.4436668","14","672.3144116"
"RED","53","693.3978015","34","672.2411478"
"RED","66","693.3784308","11","672.220058"
"RED","49","693.4236986","40","672.3430808"
"RED","54","693.3247122","29","672.25313"
"RED","42","693.4545884","26","672.2832258"
"RED","58","693.3884612","33","672.2071923"
"RED","75","693.356642301","11","672.3321235"
"RED","69","693.387775406","24","672.463579401"
"RED","62","693.500644696","18","672.319122598"
"RED","44","693.2688002","33","672.2362143"
"RED","57","693.4427999","23","672.2864924"
"RED","58","693.3826893","16","672.3219176"
"RED","63","693.5203734","17","672.3291621"
"RED","58","693.3280209","28","672.3467883"
"RED","72","693.4577074","13","672.2492359"
"BLUE","46","693.418178","48","672.3511915"
